{
    "fluentMethods": true,
    "relationships": [],
    "fields": [
        {
            "fieldName": "date",
            "fieldType": "Instant"
        },
        {
            "fieldName": "status",
            "fieldType": "TransactionStatus",
            "fieldValues": "SUCCESS,FAILED"
        },
        {
            "fieldName": "planUid",
            "fieldType": "String"
        },
        {
            "fieldName": "outgoingBundle",
            "fieldType": "byte[]",
            "fieldTypeBlobContent": "text"
        },
        {
            "fieldName": "reponseBundle",
            "fieldType": "byte[]",
            "fieldTypeBlobContent": "text"
        },
        {
            "fieldName": "errorMessage",
            "fieldType": "String"
        }
    ],
    "changelogDate": "20170215093504",
    "entityTableName": "fhir_transaction_log",
    "dto": "no",
    "pagination": "pagination",
    "service": "no",
    "microserviceName": "dcaservice"
}