{
    "fluentMethods": true,
    "relationships": [
        {
            "relationshipName": "patient",
            "otherEntityName": "patient",
            "relationshipType": "many-to-one",
            "otherEntityField": "id"
        }
    ],
    "fields": [
        {
            "fieldName": "observationIdentifier",
            "fieldType": "String"
        },
        {
            "fieldName": "observationValue",
            "fieldType": "String"
        },
        {
            "fieldName": "observationDate",
            "fieldType": "Instant"
        }
    ],
    "changelogDate": "20170214082634",
    "entityTableName": "patient_observation",
    "dto": "no",
    "pagination": "pagination",
    "service": "no",
    "microserviceName": "dcaservice"
}